432: Lab 03
…
theme_set(theme_bw())

1 Question 1

Code

# load data
hbp3456 <- read_csv("/Users/mtjen/Desktop/432/labs/lab03/hbp3456.csv") |>
  clean_names() |>
  mutate(record = as.character(record))

# see missingness for each variable
miss_var_summary(hbp3456)

# A tibble: 23 × 3
   variable n_miss pct_miss
   <chr>     <int>    <dbl>
 1 ldl         431   12.5  
 2 eth_hisp    111    3.21 
 3 race         92    2.66 
 4 income       25    0.723
 5 hsgrad       25    0.723
 6 weight       19    0.550
 7 height       18    0.521
 8 tobacco       5    0.145
 9 record        0    0    
10 practice      0    0    
# … with 13 more rows

Code

# part 1 - remove subjects with missing values for hsgrad or income
hbp3456 <- hbp3456 |>
  filter(complete.cases(hsgrad)) |> 
  filter(complete.cases(income))

# check missingness for each variable after removing some subjects
miss_var_summary(hbp3456)

# A tibble: 23 × 3
   variable n_miss pct_miss
   <chr>     <int>    <dbl>
 1 ldl         426   12.4  
 2 eth_hisp    111    3.24 
 3 race         92    2.68 
 4 weight       19    0.554
 5 height       18    0.525
 6 tobacco       5    0.146
 7 record        0    0    
 8 practice      0    0    
 9 provider      0    0    
10 age           0    0    
# … with 13 more rows
…
Code

# select 1,000 random subjects from the tibble with a seed of 432
set.seed(432)
hbp_b <- hbp3456 |>
  slice_sample(n = 1000)

# print resulting tibble to ensure correctness
hbp_b

# A tibble: 1,000 × 8
   record hsgrad race     eth_hisp   age tobacco income sqrtinc
   <chr>   <dbl> <fct>    <fct>    <dbl> <fct>    <dbl>   <dbl>
 1 903574   94.9 White    No          48 Current  34800    187.
 2 926837   74.2 AA_Black No          55 Current  24700    157.
 3 929198   40   AA_Black No          35 Never    14700    121.
 4 932367   74.2 AA_Black No          41 Never    24700    157.
 5 925592   92.2 <NA>     <NA>        61 Never    65600    256.
 6 932404   67.8 AA_Black No          67 Never    18500    136.
 7 933953   84.4 White    No          72 Never    21500    147.
 8 911527   83.6 White    No          62 Never    23000    152.
 9 918228   70.3 AA_Black No          52 Current  13400    116.
10 930262   90   <NA>     <NA>        73 Never    48300    220.
# … with 990 more rows
…
